Data preprocessing
…
# Checking growth habits of some families
data_trab %>% 
  filter(family %in% c("ASPARAGACEAE", "CACTACEAE", "CYCADACEAE", "HELICONIACEAE", "PANDANACEAE", "STRELITZIACEAE", "ZAMIACEAE")) %>%
  count(genus, habito_pad)

## # A tibble: 22 × 3
##    genus      habito_pad     n
##    <chr>      <chr>      <int>
##  1 Asparagus  Tree           1
##  2 Beaucarnea Tree           4
##  3 Beaucarnea <NA>           1
##  4 Cordyline  Tree           2
##  5 Cycas      Clumping       4
##  6 Cycas      Shrub          7
##  7 Cycas      Tree           2
##  8 Cycas      <NA>           1
##  9 Dioon      Clumping       1
## 10 Dracaena   Tree           7
## # ℹ 12 more rows
…
# Checking whether "tombo" is unique
n_distinct(data_trab$tombo)

## [1] 4631

nrow(data_trab)

## [1] 4631

# Checking records with missing genus or species
data_trab %>%
  filter(is.na(genus) | is.na(species)) %>%
  count(family, genus, species, sort = TRUE)

## # A tibble: 127 × 4
##    family        genus     species     n
##    <chr>         <chr>     <chr>   <int>
##  1 INDETERMINADA <NA>      <NA>      158
##  2 LEGUMINOSAE   <NA>      <NA>       34
##  3 ARECACEAE     Livistona <NA>       21
##  4 ARECACEAE     <NA>      <NA>       21
##  5 BIGNONIACEAE  Tabebuia  <NA>       18
##  6 MYRTACEAE     <NA>      <NA>       14
##  7 MALVACEAE     <NA>      <NA>       13
##  8 MORACEAE      Ficus     <NA>       12
##  9 POLYGONACEAE  Triplaris <NA>       12
## 10 BIGNONIACEAE  <NA>      <NA>       10
## # ℹ 117 more rows
…
